…
    ## `summarise()` has grouped output by 'examiner_id'. You can override using the
    ## `.groups` argument.

``` r
movers
```

    ## # A tibble: 56,836 × 4
    ## # Groups:   examiner_id [5,649]
    ##    examiner_id app_year examiner_art_unit moved_aus
    ##          <dbl>    <dbl>             <dbl>     <dbl>
    ##  1       59012     2004              1717         0
    ##  2       59012     2006              1716         1
    ##  3       59012     2007              1716         0
    ##  4       59012     2008              1716         0
    ##  5       59012     2010              1716         0
    ##  6       59025     2009              2465         0
    ##  7       59025     2010              2465         0
    ##  8       59025     2011              2465         0
    ##  9       59025     2012              2465         0
    ## 10       59025     2013              2465         0
    ## # … with 56,826 more rows
…
``` r
movers <- movers |> 
  group_by(examiner_id) |> 
  mutate(
    est_sample = if_else(n() - sum(moved_aus)>2,1,0)
    )

movers
```

    ## # A tibble: 56,836 × 5
    ## # Groups:   examiner_id [5,649]
    ##    examiner_id app_year examiner_art_unit moved_aus est_sample
    ##          <dbl>    <dbl>             <dbl>     <dbl>      <dbl>
    ##  1       59012     2004              1717         0          1
    ##  2       59012     2006              1716         1          1
    ##  3       59012     2007              1716         0          1
    ##  4       59012     2008              1716         0          1
    ##  5       59012     2010              1716         0          1
    ##  6       59025     2009              2465         0          1
    ##  7       59025     2010              2465         0          1
    ##  8       59025     2011              2465         0          1
    ##  9       59025     2012              2465         0          1
    ## 10       59025     2013              2465         0          1
    ## # … with 56,826 more rows
…
    ## `summarise()` has grouped output by 'examiner_art_unit'. You can override using
    ## the `.groups` argument.

``` r
au_data
```

    ## # A tibble: 4,915 × 5
    ## # Groups:   examiner_art_unit [291]
    ##    examiner_art_unit app_year au_size au_nfemale au_nmale
    ##                <dbl>    <dbl>   <int>      <dbl>    <dbl>
    ##  1              1600     2000       1          0        1
    ##  2              1600     2001       1          0        1
    ##  3              1600     2002       2          1        1
    ##  4              1600     2003       3          2        1
    ##  5              1600     2004       2          1        1
    ##  6              1600     2005       1          0        1
    ##  7              1600     2006       1          0        1
    ##  8              1600     2007       3          2        1
    ##  9              1600     2008       1          1        0
    ## 10              1600     2010       1          1        0
    ## # … with 4,905 more rows

We are getting very small art unit sizes for some AU-year cells. For
now, let’s only consider art units with 5 or more examiners.

``` r
au_data <- au_data |> 
  filter(au_size>=5)

au_data
```

    ## # A tibble: 4,483 × 5
    ## # Groups:   examiner_art_unit [284]
    ##    examiner_art_unit app_year au_size au_nfemale au_nmale
    ##                <dbl>    <dbl>   <int>      <dbl>    <dbl>
    ##  1              1609     2003       9          6        3
    ##  2              1609     2004      13          5        7
    ##  3              1609     2005       9          3        4
    ##  4              1609     2006       6          2        3
    ##  5              1611     2001      10          7        3
    ##  6              1611     2002      12          8        3
    ##  7              1611     2003      16         10        5
    ##  8              1611     2004      20         11        8
    ##  9              1611     2005      23         11       11
    ## 10              1611     2006      22         12        9
    ## # … with 4,473 more rows
…
    ## Joining, by = c("app_year", "examiner_art_unit")

``` r
reg_sample
```

    ## # A tibble: 55,553 × 9
    ##    examiner_id app_year examiner_art_unit moved_aus au_size au_nfemale au_nmale
    ##          <dbl>    <dbl>             <dbl>     <dbl>   <int>      <dbl>    <dbl>
    ##  1       59012     2004              1717         0       8          2        6
    ##  2       59012     2006              1716         1      18          6       11
    ##  3       59012     2007              1716         0      19          7       11
    ##  4       59012     2008              1716         0      19          7       11
    ##  5       59012     2010              1716         0      21          7       12
    ##  6       59025     2009              2465         0      19          3       13
    ##  7       59025     2010              2465         0      18          3       12
    ##  8       59025     2011              2465         0      19          3       12
    ##  9       59025     2012              2465         0      19          3       12
    ## 10       59025     2013              2465         0      17          2       11
    ## # … with 55,543 more rows, and 2 more variables: will_move <dbl>,
    ## #   share_female <dbl>
…
